{
  "migIndex": 1,
  "data": [
    {
      "path": "App/Fonts/Alterlight-Regular.ttf",
      "sha1": "06a11c7cff67b417aa842c9b98005fe7b1af81d2"
    },
    {
      "path": "App/Realm/default.realm",
      "sha1": "5645aae73fc9451fa69fdf2d3ac1ca217fdde0c9"
    }
  ]
}
